highlighting-and-dplyr • vlightr
…
starwars %>%
  mutate(
    across(
      where(is_highlightable),
      # This works:
      \(x) templight_case(x, species == "Droid" ~ cli::bg_br_yellow(.x))
      
      # These also work:
      # ~ templight_case(x, species == "Droid" ~ \(x) cli::bg_br_yellow(x))
      # ~ templight(x, species == "Droid", ~ cli::bg_br_yellow(.x))
    )
  ) %>%
  select(1:4)
#> # A tibble: 87 × 4
#>                  name       height         mass    hair_color
#>          <hlght<chr>> <hlght<int>> <hlght<dbl>>  <hlght<chr>>
#>  1     Luke Skywalker          172           77         blond
#>  2              C-3PO          167           75            NA
#>  3              R2-D2           96           32            NA
#>  4        Darth Vader          202          136          none
#>  5        Leia Organa          150           49         brown
#>  6          Owen Lars          178          120   brown, grey
#>  7 Beru Whitesun Lars          165           75         brown
#>  8              R5-D4           97           32            NA
#>  9  Biggs Darklighter          183           84         black
#> 10     Obi-Wan Kenobi          182           77 auburn, white
#> # ℹ 77 more rows
…
